…
``` r
colnames(penguins)
```

    ## [1] "species"           "island"            "bill_length_mm"   
    ## [4] "bill_depth_mm"     "flipper_length_mm" "body_mass_g"      
    ## [7] "sex"               "year"

The important value that I pick is the species.

``` r
penguins[1]
```

    ## # A tibble: 344 x 1
    ##    species
    ##    <fct>  
    ##  1 Adelie 
    ##  2 Adelie 
    ##  3 Adelie 
    ##  4 Adelie 
    ##  5 Adelie 
    ##  6 Adelie 
    ##  7 Adelie 
    ##  8 Adelie 
    ##  9 Adelie 
    ## 10 Adelie 
    ## # … with 334 more rows
…
